An example with simulated data
…
sfa_boundaries
#> Simple feature collection with 4 features and 1 field
#> Geometry type: MULTIPOLYGON
#> Dimension:     XY
#> Bounding box:  xmin: -64.18658 ymin: 46.00004 xmax: -46.6269 ymax: 60.84333
#> Geodetic CRS:  WGS 84
#>   sfa                       geometry
#> 1   4 MULTIPOLYGON (((-59.36453 5...
#> 2   5 MULTIPOLYGON (((-55 53.75, ...
#> 3   6 MULTIPOLYGON (((-49.9269 49...
#> 4   7 MULTIPOLYGON (((-54.48779 4...
borealis_simulated
#> # A tibble: 1,800 × 8
#>    year_f sfa   weight_per_km2 temp_at_bottom lon_dec lat_dec   row uniqueID  
#>    <fct>  <chr>          <dbl>          <dbl>   <dbl>   <dbl> <int> <chr>     
#>  1 1995   7               14.7          1.31    -62.8    59.2     1 y1995s7r1 
#>  2 1995   7              366.           0       -56.7    55.2     2 y1995s7r2 
#>  3 1995   7              108.           0.982   -60.6    56.9     3 y1995s7r3 
#>  4 1995   7               62.3          0       -58.0    56.4     4 y1995s7r4 
#>  5 1995   7                0            0.698   -59.0    57.1     5 y1995s7r5 
#>  6 1995   7                0            1.45    -58.8    56.3     6 y1995s7r6 
#>  7 1995   7              236.           1.05    -51.1    50.7     7 y1995s7r7 
#>  8 1995   7               68.2          0       -54.1    54.5     8 y1995s7r8 
#>  9 1995   7               93.6          1.86    -54.9    53.7     9 y1995s7r9 
#> 10 1995   7               25.4          1.74    -54.7    50.5    10 y1995s7r10
#> # … with 1,790 more rows
predator_simulated
#> # A tibble: 10,200 × 7
#>    year_f sfa   weight_per_km2 lon_dec lat_dec   row uniqueID  
#>    <fct>  <chr>          <dbl>   <dbl>   <dbl> <int> <chr>     
#>  1 1995   7               9.90   -61.0    60.0     1 y1995s7r1 
#>  2 1995   7             128.     -60.0    57.6     2 y1995s7r2 
#>  3 1995   7             358.     -58.0    55.6     3 y1995s7r3 
#>  4 1995   7               0      -58.0    55.9     4 y1995s7r4 
#>  5 1995   7             103.     -60.5    57.2     5 y1995s7r5 
#>  6 1995   7              57.3    -53.7    51.8     6 y1995s7r6 
#>  7 1995   7              58.6    -53.6    50.7     7 y1995s7r7 
#>  8 1995   7               0      -50.2    50.1     8 y1995s7r8 
#>  9 1995   7               0      -54.6    54.0     9 y1995s7r9 
#> 10 1995   7             131.     -52.8    51.0    10 y1995s7r10
#> # … with 10,190 more rows
catch_simulated
#> # A tibble: 2,020 × 7
#>    year_f sfa   catch lon_dec lat_dec   row uniqueID  
#>    <fct>  <chr> <dbl>   <dbl>   <dbl> <int> <chr>     
#>  1 1991   4     2527.   -62.2    59.5     1 y1991s4r1 
#>  2 1991   4     4194.   -61.0    58.0     2 y1991s4r2 
#>  3 1991   4     7438.   -62.4    60.3     3 y1991s4r3 
#>  4 1991   4        0    -58.2    55.2     4 y1991s4r4 
#>  5 1991   4     3837.   -57.8    55.5     5 y1991s4r5 
#>  6 1991   4     3196.   -58.6    56.3     6 y1991s4r6 
#>  7 1991   4     3214.   -57.9    55.7     7 y1991s4r7 
#>  8 1991   4        0    -56.4    54.4     8 y1991s4r8 
#>  9 1991   4      539.   -58.9    55.6     9 y1991s4r9 
#> 10 1991   4     4234.   -55.2    53.2    10 y1991s4r10
#> # … with 2,010 more rows
…
## Not run
plot(bounds_delaunay)

The results of the discretization can also be explored with
spm_patches() and spm_points().

spm_patches(bounds_voronoi)
#> Simple feature collection with 92 features and 3 fields
#> Geometry type: POLYGON
#> Dimension:     XY
#> Bounding box:  xmin: -64.18658 ymin: 46.00004 xmax: -46.6269 ymax: 60.84488
#> Geodetic CRS:  WGS 84
#> # A tibble: 92 × 4
#>    sfa   patch_id patch_area                                            geometry
#>  * <fct> <fct>        [km^2]                                       <POLYGON [°]>
#>  1 4     P1            5867. ((-62.56544 59.47292, -62.51885 60.2501, -62.42353…
#>  2 4     P2            6294. ((-61.15825 60.5856, -61.18083 60.61861, -61.16696…
#>  3 4     P3            1594. ((-61.98352 59.91756, -62.14032 59.90335, -62.3916…
#>  4 4     P4            1882. ((-61.60726 58.17744, -61.55968 58.21747, -61.5430…
#>  5 4     P5            1890. ((-61.54308 58.72455, -60.98005 58.90554, -60.9787…
#>  6 4     P6            2149. ((-62.81971 59.18792, -62.54312 59.42411, -62.5654…
#>  7 4     P7            2461. ((-61.55968 58.21747, -60.90082 58.30673, -60.7969…
#>  8 4     P8            1580. ((-60.85729 60.08226, -60.87677 60.07412, -61.2755…
#>  9 4     P9            7244. ((-60.30623 57.88979, -60.09616 58.23633, -60.1909…
#> 10 4     P10           1570. ((-59.93021 58.87649, -60.19091 58.62062, -60.0961…
#> # … with 82 more rows
spm_points(bounds_voronoi)
#> Simple feature collection with 120 features and 9 fields
#> Geometry type: POINT
#> Dimension:     XY
#> Bounding box:  xmin: -62.95014 ymin: 46.05739 xmax: -47.39935 ymax: 60.81292
#> Geodetic CRS:  WGS 84
#> # A tibble: 120 × 10
#> # Groups:   sfa [4]
#>    year_f weight_per_km2 temp_at_bottom lon_dec lat_dec   row uniqueID   
#>  * <fct>       [kg/km^2]          <dbl>   <dbl>   <dbl> <int> <chr>      
#>  1 1995            7117.          3.88    -61.7    60.0    21 y1995s6r21 
#>  2 1995               0           2.33    -59.2    57.3    23 y1995s6r23 
#>  3 1995               0           1.03    -54.0    46.1    40 y1995s6r40 
#>  4 1996             553.          2.97    -59.5    56.0    65 y1996s7r65 
#>  5 1996            6538.          4.42    -61.3    60.8   102 y1996s5r102
#>  6 1996            2427.          2.17    -55.4    54.4   105 y1996s5r105
#>  7 1996            1945.          0       -48.4    47.2   138 y1996s4r138
#>  8 1997               0           0.649   -55.3    54.7   144 y1997s7r144
#>  9 1997            1430.          0       -54.4    50.2   149 y1997s7r149
#> 10 1997               0           5.18    -60.9    59.6   182 y1997s4r182
#> # … with 110 more rows, and 3 more variables: geometry <POINT [°]>, sfa <fct>,
#> #   area_sfa [km^2]
…
